{
  "type": "module",
  "name": "advmenusystem",
  "version": "4.03",
  "revision": null,
  "path": "application\/modules\/Advmenusystem",
  "repository": null,
  "date": "Thu, 13 Dec 2012 12:29:56 +0000",
  "title": "Advanced Menu System",
  "description": "This is Advanced Menu System module.",
  "thumb": null,
  "developer": null,
  "authors": [
    "Yoyo"
  ],
  "changeLog": null,
  "meta": {
    "date": "Thu, 13 Dec 2012 12:29:56 +0000",
    "title": "Advanced Menu System",
    "description": "This is Advanced Menu System module.",
    "developer": null,
    "authors": [
      "Yoyo"
    ],
    "changeLog": null
  },
  "actions": [
    "install",
    "upgrade",
    "refresh",
    "enable",
    "disable"
  ],
  "callback": {
    "path": null,
    "class": "Engine_Package_Installer_Module",
    "priority": 100
  },
  "dependencies": {
    "module-core": {
      "type": "module",
      "name": "core",
      "guid": "module-core",
      "minVersion": "4.1.1",
      "maxVersion": null,
      "excludeExcept": null
    }
  },
  "tests": [
    
  ],
  "permissions": [
    
  ],
  "structure": {
    "application\/modules\/Advmenusystem": {
      "type": "directory",
      "path": "application\/modules\/Advmenusystem",
      "structure": [
        {
          "path": "Api",
          "dir": true,
          "file": false,
          "perms": "0755",
          "size": 4096,
          "sha1": null
        },
        {
          "path": "Api\/Menus.php",
          "dir": false,
          "file": true,
          "perms": "0644",
          "size": 4682,
          "sha1": "a8550d3d3087e5ebbbe3a7ddbe649309d19acba4"
        },
        {
          "path": "Api\/Core.php",
          "dir": false,
          "file": true,
          "perms": "0644",
          "size": 1026,
          "sha1": "eb676e6186bebdf894a0c6741fda5554d562bfe4"
        },
        {
          "path": "settings",
          "dir": true,
          "file": false,
          "perms": "0755",
          "size": 4096,
          "sha1": null
        },
        {
          "path": "settings\/manifest.php",
          "dir": false,
          "file": true,
          "perms": "0644",
          "size": 1699,
          "sha1": "67ad1139e1d3c77a415200cbc491b7c1fa32ca7f"
        },
        {
          "path": "settings\/my.sql",
          "dir": false,
          "file": true,
          "perms": "0644",
          "size": 1357,
          "sha1": "4bfc6d087d20ce746f162556b71ddde4ab00240b"
        },
        {
          "path": "settings\/content.php",
          "dir": false,
          "file": true,
          "perms": "0644",
          "size": 511,
          "sha1": "d735a4803f6d2b05d6996dfa44dc77b39e13881d"
        },
        {
          "path": "cli.php",
          "dir": false,
          "file": true,
          "perms": "0644",
          "size": 1407,
          "sha1": "065aafb368f7afc3a09ca2dad9a9bdcb8e3ca441"
        },
        {
          "path": "Model",
          "dir": true,
          "file": false,
          "perms": "0755",
          "size": 4096,
          "sha1": null
        },
        {
          "path": "Model\/DbTable",
          "dir": true,
          "file": false,
          "perms": "0755",
          "size": 4096,
          "sha1": null
        },
        {
          "path": "Model\/DbTable\/.htempty",
          "dir": false,
          "file": true,
          "perms": "0644",
          "size": 0,
          "sha1": "da39a3ee5e6b4b0d3255bfef95601890afd80709"
        },
        {
          "path": "total.php",
          "dir": false,
          "file": true,
          "perms": "0644",
          "size": 1086,
          "sha1": "05f44df7230fcf7f963ab9e09ac0531e24b96457"
        },
        {
          "path": "controllers",
          "dir": true,
          "file": false,
          "perms": "0755",
          "size": 4096,
          "sha1": null
        },
        {
          "path": "controllers\/IndexController.php",
          "dir": false,
          "file": true,
          "perms": "0644",
          "size": 15153,
          "sha1": "280f893d4a4dbe597d30d6d99d9f39a387416bb0"
        },
        {
          "path": "controllers\/AdminStylesController.php",
          "dir": false,
          "file": true,
          "perms": "0644",
          "size": 2144,
          "sha1": "63992273f7921b3e86236b773575790b780fb76f"
        },
        {
          "path": "controllers\/AdminMenusController.php",
          "dir": false,
          "file": true,
          "perms": "0644",
          "size": 8454,
          "sha1": "af314e121365b9a3776870d36fa3512a6bc17adb"
        },
        {
          "path": "externals",
          "dir": true,
          "file": false,
          "perms": "0755",
          "size": 4096,
          "sha1": null
        },
        {
          "path": "externals\/styles",
          "dir": true,
          "file": false,
          "perms": "0755",
          "size": 4096,
          "sha1": null
        },
        {
          "path": "externals\/styles\/main.css",
          "dir": false,
          "file": true,
          "perms": "0644",
          "size": 11537,
          "sha1": "29ab5515f2d6cce03a7c9be499d3e5fde6e2a378"
        },
        {
          "path": "externals\/images",
          "dir": true,
          "file": false,
          "perms": "0755",
          "size": 4096,
          "sha1": null
        },
        {
          "path": "externals\/images\/hv.png",
          "dir": false,
          "file": true,
          "perms": "0644",
          "size": 2865,
          "sha1": "1781663d8c4c2937de23de0b7fdc2899ec7aec7a"
        },
        {
          "path": "externals\/images\/dropdownArrow.png",
          "dir": false,
          "file": true,
          "perms": "0644",
          "size": 1495,
          "sha1": "34176556a8e3086498310ff400a9cb6a97bad03a"
        },
        {
          "path": "externals\/images\/notification_inbox_updates_1.png",
          "dir": false,
          "file": true,
          "perms": "0644",
          "size": 3706,
          "sha1": "00043452eeb46318a520ad699cb5035ae4df5df8"
        },
        {
          "path": "externals\/images\/notification_inbox_updates.png",
          "dir": false,
          "file": true,
          "perms": "0644",
          "size": 7676,
          "sha1": "187fffda397cf8fcdf7548fff721e966e27a4863"
        },
        {
          "path": "externals\/images\/loading.gif",
          "dir": false,
          "file": true,
          "perms": "0644",
          "size": 847,
          "sha1": "7bf9632e929cab51d52d6ada53b1180415544693"
        },
        {
          "path": "externals\/images\/hs.png",
          "dir": false,
          "file": true,
          "perms": "0644",
          "size": 2684,
          "sha1": "8a937187ca475f678753774b244deecbb06fbd82"
        },
        {
          "path": "externals\/images\/arrow2_active.png",
          "dir": false,
          "file": true,
          "perms": "0644",
          "size": 972,
          "sha1": "f4f25862514bd5dd5a5e6f515f74a705f74edde0"
        },
        {
          "path": "externals\/images\/cross.gif",
          "dir": false,
          "file": true,
          "perms": "0644",
          "size": 83,
          "sha1": "563b3d5d8cb15f4b5f99e05206c5a6d238111210"
        },
        {
          "path": "externals\/images\/loading_friend.gif",
          "dir": false,
          "file": true,
          "perms": "0644",
          "size": 1893,
          "sha1": "1e1d24a864aea3543e9fc839138602aadee5fba4"
        },
        {
          "path": "externals\/images\/arrow2.png",
          "dir": false,
          "file": true,
          "perms": "0644",
          "size": 953,
          "sha1": "4b5508caeb08b87f2ba05ef0761a24b8c9351a71"
        },
        {
          "path": "externals\/.htaccess",
          "dir": false,
          "file": true,
          "perms": "0644",
          "size": 144,
          "sha1": "47bb36a5f03278d4b6ea5804e494c00ccb02e8e1"
        },
        {
          "path": "externals\/scripts",
          "dir": true,
          "file": false,
          "perms": "0755",
          "size": 4096,
          "sha1": null
        },
        {
          "path": "externals\/scripts\/jscolor.js",
          "dir": false,
          "file": true,
          "perms": "0644",
          "size": 26943,
          "sha1": "fcbfc649d79a3024161c07dfcb98b21e0ee077ba"
        },
        {
          "path": "externals\/scripts\/total.php",
          "dir": false,
          "file": true,
          "perms": "0644",
          "size": 1076,
          "sha1": "1f289735b5e313cfec73abe7ffc102499278598e"
        },
        {
          "path": "externals\/scripts\/.htempty",
          "dir": false,
          "file": true,
          "perms": "0644",
          "size": 0,
          "sha1": "da39a3ee5e6b4b0d3255bfef95601890afd80709"
        },
        {
          "path": "externals\/themes",
          "dir": true,
          "file": false,
          "perms": "0755",
          "size": 4096,
          "sha1": null
        },
        {
          "path": "externals\/themes\/youbase.css",
          "dir": false,
          "file": true,
          "perms": "0644",
          "size": 1806,
          "sha1": "6a6e2d6ee04e9e6132faa08e9554c2983e515881"
        },
        {
          "path": "externals\/themes\/images",
          "dir": true,
          "file": false,
          "perms": "0755",
          "size": 4096,
          "sha1": null
        },
        {
          "path": "externals\/themes\/images\/notification_inbox_updates_1.png",
          "dir": false,
          "file": true,
          "perms": "0644",
          "size": 4439,
          "sha1": "858a57a756ac368d7c2e705bafad28aa72647a61"
        },
        {
          "path": "externals\/themes\/images\/notification_inbox_updates.png",
          "dir": false,
          "file": true,
          "perms": "0644",
          "size": 4270,
          "sha1": "224871620c35ed5608c792d02462067e857cbea1"
        },
        {
          "path": "externals\/themes\/default.css",
          "dir": false,
          "file": true,
          "perms": "0666",
          "size": 0,
          "sha1": "da39a3ee5e6b4b0d3255bfef95601890afd80709"
        },
        {
          "path": "externals\/themes\/grid.css",
          "dir": false,
          "file": true,
          "perms": "0644",
          "size": 112,
          "sha1": "186ca88ca277f9941367a00065825529627af364"
        },
        {
          "path": "externals\/themes\/youdate.css",
          "dir": false,
          "file": true,
          "perms": "0644",
          "size": 1834,
          "sha1": "bde2ac23d90d02186e976578640ae0df3c04aa91"
        },
        {
          "path": "externals\/themes\/snowbot.css",
          "dir": false,
          "file": true,
          "perms": "0644",
          "size": 423,
          "sha1": "3032d3e918f5073042ebc9d67f018052351efb24"
        },
        {
          "path": "externals\/themes\/digita.css",
          "dir": false,
          "file": true,
          "perms": "0644",
          "size": 286,
          "sha1": "4869ca0dd09d097421b241c148904a92e7eba242"
        },
        {
          "path": "externals\/themes\/musicbox.css",
          "dir": false,
          "file": true,
          "perms": "0644",
          "size": 76,
          "sha1": "a384b114000e9d1a6163214c170edb8c56f64d42"
        },
        {
          "path": "externals\/themes\/bamboo.css",
          "dir": false,
          "file": true,
          "perms": "0644",
          "size": 603,
          "sha1": "b34f0de95bf41a3d52d9e3c133eb014510fbba91"
        },
        {
          "path": "externals\/themes\/quantum.css",
          "dir": false,
          "file": true,
          "perms": "0644",
          "size": 607,
          "sha1": "64e15e5e9c9e4d13227007e9d9d43151a2d36e56"
        },
        {
          "path": "externals\/themes\/youface.css",
          "dir": false,
          "file": true,
          "perms": "0644",
          "size": 2162,
          "sha1": "7798bfd793158b87389baa610f378e4f39860252"
        },
        {
          "path": "externals\/themes\/clean.css",
          "dir": false,
          "file": true,
          "perms": "0644",
          "size": 307,
          "sha1": "18575e66a49ee61eaa13a304411c3323434c72e7"
        },
        {
          "path": "externals\/themes\/slipstream.css",
          "dir": false,
          "file": true,
          "perms": "0644",
          "size": 257,
          "sha1": "49cff4e308eba7f6b71e23b1a91091af9a6d2a83"
        },
        {
          "path": "externals\/themes\/kandy.css",
          "dir": false,
          "file": true,
          "perms": "0644",
          "size": 591,
          "sha1": "a8accf64c222e4cf9fe599591286e2914f33a24a"
        },
        {
          "path": "externals\/themes\/midnight.css",
          "dir": false,
          "file": true,
          "perms": "0644",
          "size": 130,
          "sha1": "f3379b4430f4f1c20a4cfa63f415f5a99b3e9798"
        },
        {
          "path": "widgets",
          "dir": true,
          "file": false,
          "perms": "0755",
          "size": 4096,
          "sha1": null
        },
        {
          "path": "widgets\/advanced-menu-system",
          "dir": true,
          "file": false,
          "perms": "0755",
          "size": 4096,
          "sha1": null
        },
        {
          "path": "widgets\/advanced-menu-system\/Controller.php",
          "dir": false,
          "file": true,
          "perms": "0644",
          "size": 4020,
          "sha1": "6aa97b6221da3ce691f91db67ccca276e62f7312"
        },
        {
          "path": "widgets\/advanced-menu-system\/index.tpl",
          "dir": false,
          "file": true,
          "perms": "0644",
          "size": 16940,
          "sha1": "b04378acd4a9274fcb74fe1bd1732b4f5825be5f"
        },
        {
          "path": "Bootstrap.php",
          "dir": false,
          "file": true,
          "perms": "0644",
          "size": 4510,
          "sha1": "be61b3a5751d5ae01715ec616914a04f73ceb8c1"
        },
        {
          "path": "Form",
          "dir": true,
          "file": false,
          "perms": "0755",
          "size": 4096,
          "sha1": null
        },
        {
          "path": "Form\/Admin",
          "dir": true,
          "file": false,
          "perms": "0755",
          "size": 4096,
          "sha1": null
        },
        {
          "path": "Form\/Admin\/Menu",
          "dir": true,
          "file": false,
          "perms": "0755",
          "size": 4096,
          "sha1": null
        },
        {
          "path": "Form\/Admin\/Menu\/ItemDelete.php",
          "dir": false,
          "file": true,
          "perms": "0644",
          "size": 1189,
          "sha1": "5bc16c17a8a80ede31689fa6e61b107937dda042"
        },
        {
          "path": "Form\/Admin\/Menu\/ItemEdit.php",
          "dir": false,
          "file": true,
          "perms": "0644",
          "size": 684,
          "sha1": "ee5954a79237d49deda998dcaf777140dc2d1e7d"
        },
        {
          "path": "Form\/Admin\/Menu\/ItemCreate.php",
          "dir": false,
          "file": true,
          "perms": "0644",
          "size": 2225,
          "sha1": "2c2503b907eaf51ee95608098693eadab79908f4"
        },
        {
          "path": "Form\/Admin\/Style.php",
          "dir": false,
          "file": true,
          "perms": "0644",
          "size": 2048,
          "sha1": "6558aaebc3be17d5f5bb0630d3360f95de344740"
        },
        {
          "path": "Form\/.htempty",
          "dir": false,
          "file": true,
          "perms": "0644",
          "size": 0,
          "sha1": "da39a3ee5e6b4b0d3255bfef95601890afd80709"
        },
        {
          "path": "views",
          "dir": true,
          "file": false,
          "perms": "0755",
          "size": 4096,
          "sha1": null
        },
        {
          "path": "views\/scripts",
          "dir": true,
          "file": false,
          "perms": "0755",
          "size": 4096,
          "sha1": null
        },
        {
          "path": "views\/scripts\/index",
          "dir": true,
          "file": false,
          "perms": "0755",
          "size": 4096,
          "sha1": null
        },
        {
          "path": "views\/scripts\/index\/notifications.tpl",
          "dir": false,
          "file": true,
          "perms": "0644",
          "size": 5626,
          "sha1": "ddbca7a21cab3d3f2831e5772b100a7f1a1ace53"
        },
        {
          "path": "views\/scripts\/index\/get-submenu-main.tpl",
          "dir": false,
          "file": true,
          "perms": "0644",
          "size": 75,
          "sha1": "4efcacb8fe9a9f563a656ca1fcdac2e6f56b321b"
        },
        {
          "path": "views\/scripts\/index\/confirm-friend.tpl",
          "dir": false,
          "file": true,
          "perms": "0644",
          "size": 127,
          "sha1": "f06b5d99e02fbc9bd826e2503cc977aec0a50796"
        },
        {
          "path": "views\/scripts\/index\/friend-requests.tpl",
          "dir": false,
          "file": true,
          "perms": "0644",
          "size": 4702,
          "sha1": "2046a1c5c9d9995ea1fd5526efb726316b8e5c4b"
        },
        {
          "path": "views\/scripts\/index\/notification.tpl",
          "dir": false,
          "file": true,
          "perms": "0644",
          "size": 2036,
          "sha1": "aa8d3c70b9b58073d3d53f857d437d6e04fe1316"
        },
        {
          "path": "views\/scripts\/index\/message.tpl",
          "dir": false,
          "file": true,
          "perms": "0644",
          "size": 1880,
          "sha1": "66e5e6ea34d9f9a0b491db9ebfb836d42fc76463"
        },
        {
          "path": "views\/scripts\/index\/friend.tpl",
          "dir": false,
          "file": true,
          "perms": "0644",
          "size": 4220,
          "sha1": "99a54c7bf088ba98d6cbe26ba07f0c4ae6fa8ade"
        },
        {
          "path": "views\/scripts\/index\/cancel-friend.tpl",
          "dir": false,
          "file": true,
          "perms": "0644",
          "size": 136,
          "sha1": "a22e4fbda3d508f62159138a932ab265de8bd68f"
        },
        {
          "path": "views\/scripts\/index\/pulldown.tpl",
          "dir": false,
          "file": true,
          "perms": "0644",
          "size": 442,
          "sha1": "03e1980e3f982e62e7ab347eda2a2faa82b85791"
        },
        {
          "path": "views\/scripts\/index\/index.tpl",
          "dir": false,
          "file": true,
          "perms": "0644",
          "size": 75,
          "sha1": "4efcacb8fe9a9f563a656ca1fcdac2e6f56b321b"
        },
        {
          "path": "views\/scripts\/_profile_menu.tpl",
          "dir": false,
          "file": true,
          "perms": "0644",
          "size": 558,
          "sha1": "c037f26a5f33917d2e076c9fcb3030957d625fb3"
        },
        {
          "path": "views\/scripts\/admin-menus",
          "dir": true,
          "file": false,
          "perms": "0755",
          "size": 4096,
          "sha1": null
        },
        {
          "path": "views\/scripts\/admin-menus\/create.tpl",
          "dir": false,
          "file": true,
          "perms": "0644",
          "size": 702,
          "sha1": "5b903bf0ae1572f04ba2220950e77902e64dc9cc"
        },
        {
          "path": "views\/scripts\/admin-menus\/delete.tpl",
          "dir": false,
          "file": true,
          "perms": "0644",
          "size": 678,
          "sha1": "00997c7065e0a38a372fcb8b4fefaf53e3f54963"
        },
        {
          "path": "views\/scripts\/admin-menus\/index.tpl",
          "dir": false,
          "file": true,
          "perms": "0644",
          "size": 6169,
          "sha1": "60ae7568c7eb3ab8f864d46deb9f17955c63265c"
        },
        {
          "path": "views\/scripts\/admin-menus\/edit.tpl",
          "dir": false,
          "file": true,
          "perms": "0644",
          "size": 789,
          "sha1": "e8999d4f510fa09e0c15cd68e2156b39977addbf"
        },
        {
          "path": "views\/scripts\/admin-styles",
          "dir": true,
          "file": false,
          "perms": "0755",
          "size": 4096,
          "sha1": null
        },
        {
          "path": "views\/scripts\/admin-styles\/index.tpl",
          "dir": false,
          "file": true,
          "perms": "0644",
          "size": 858,
          "sha1": "c8223c2ce7ac8b532a2240b18b21bc636cfe8748"
        },
        {
          "path": "views\/scripts\/_sub_main_menu.tpl",
          "dir": false,
          "file": true,
          "perms": "0644",
          "size": 902,
          "sha1": "71a82e7cd24c15a869d93f74861a52c65dd633b5"
        },
        {
          "path": "views\/scripts\/_notification_icons.tpl",
          "dir": false,
          "file": true,
          "perms": "0644",
          "size": 3305,
          "sha1": "b0eb4bed647df170b924ac3f4a2aeeef03689d9e"
        },
        {
          "path": "views\/scripts\/_css.tpl",
          "dir": false,
          "file": true,
          "perms": "0644",
          "size": 953,
          "sha1": "cfd71eac6e1eeff675dda0f30a8ca0ae81422360"
        },
        {
          "path": "views\/scripts\/_sub_mini_menu.tpl",
          "dir": false,
          "file": true,
          "perms": "0644",
          "size": 2697,
          "sha1": "c8b1dbe119246fbf08f63676c04660e09ca747c6"
        },
        {
          "path": "Plugin",
          "dir": true,
          "file": false,
          "perms": "0755",
          "size": 4096,
          "sha1": null
        },
        {
          "path": "Plugin\/Menus.php",
          "dir": false,
          "file": true,
          "perms": "0644",
          "size": 2071,
          "sha1": "e9e795129d75e670a86de3a57e5d2d6832862ff7"
        }
      ]
    },
    "application\/languages\/en\/advmenusystem.csv": {
      "type": "file",
      "path": "application\/languages\/en\/advmenusystem.csv",
      "structure": {
        "path": "advmenusystem.csv",
        "dir": false,
        "file": true,
        "perms": "0644",
        "size": 923,
        "sha1": "0b09ffbc5c321699144bf48ec9e33cbbe516233f"
      }
    }
  }
}